{
    "/api": {
        "target":  {
            "host": "localhost",
            "protocol": "http:",
            "port": 8000
        },
        "secure": false,
        "changeOrigin": true,
        "logLevel": "info"
    }
}